{
  "major_version":2,
  "minor_version":2000,
  "update_time":20220801,
  "input_method_switch": true,
  "navigation_switch": true,
  "video_switch": true,
  "audio_switch": true,
  "high_temperature_threshold": 0,
  "high_temperature_refresh_rate": 0,
  "multi_window_refresh_rate": 60
}